Timestamp,Found Object_x,Found Object_y,Found Object_z,Object To Find
7197901274143,4.748611,0.1224976,-1.202393,3

7200108860411,2.763428,3.0625,-2.644714,3

7204040890501,3.888702,2.57251,1.506714,3

7207012854910,0.3015289,2.08252,4.425171,3

7209212883582,-0.9725037,4.532471,1.587646,3

7213268861233,-4.05394,1.592529,2.244873,3

7217788872682,0.9167023,0.6124878,-4.774353,3

7219768864529,-1.080063,3.55249,-3.197388,3

7223276871328,-3.865158,1.102478,-2.802673,3

7225152863537,-2.751831,4.04248,-0.3092651,3

