Timestamp,Found Object_x,Found Object_y,Found Object_z,Object To Find
2340690117851,0.9563377,1.113636,4.674958,60

2345770107498,-0.4233181,2.994444,-3.8554,20

2378698073273,-4.594558,1.014647,1.367673,71

2389486025079,3.103774,3.538889,-1.361196,8

2401218012145,3.349956,0.4207071,-3.551169,47

2403570064265,0.4593118,2.35101,-4.274551,64

2430198000107,-0.2441071,3.192425,3.709291,59

2436453968308,-2.31443,2.94495,3.159222,57

2439693987196,-3.411487,2.84596,-2.066947,26

2447345981040,-0.1260719,1.311616,-4.71951,34

2450749992600,1.459763,1.707576,-4.354685,94

2469917930726,-0.2787652,4.677273,-1.43367,70

2479869932445,-3.256318,3.489394,-1.109291,83

2492549911277,-2.615967,4.132828,-0.2940224,98

2518113938983,0.008346092,4.875253,0.4917744,11

