Timestamp,Found Object_x,Found Object_y,Found Object_z,Object To Find
803129086164,-2.324402,3.885354,-1.873815,2

805965063409,-4.313641,0.1237374,-2.321033,43

814021074262,0.2992288,2.15303,4.39146,68

897172979204,0.843631,3.390404,-3.435614,56

917344923632,1.129103,2.796465,3.861983,20

932080949142,-4.594558,1.014647,1.367673,4

934616932182,-2.687348,0.2227273,4.091278,73

941820914729,-1.050555,3.637879,-3.110012,17

968705016470,-1.720479,0.8661616,4.50552,25

987392868678,-3.103852,1.262121,3.575354,65

998348845613,-2.298638,3.241919,-2.866396,6

1010712899818,3.836347,0.3217172,3.031327,72

1020108815624,-1.347964,3.588384,3.052294,16

1032116815634,4.319777,0.8166667,-2.163928,59

1069188894844,-2.31443,2.94495,3.159222,37

