Timestamp,Found Object_x,Found Object_y,Found Object_z,Object To Find
22300392852247,4.387268,2.180481,0.08557129,5

22303104891421,1.867722,1.690491,4.20282,5

22307068894350,-3.114334,1.2005,3.587463,5

22310376893758,-3.1763,3.650513,0.7713013,5

22312912861637,-4.663086,0.7105103,-1.326965,5

22315132904328,-2.34259,3.160522,-2.921204,5

22317380902432,-0.782074,0.22052,-4.832153,5

22321376916111,1.813553,2.670471,-3.686401,5

22330716945340,-0.5192108,4.140503,2.56842,5

22336444927139,1.288223,4.630493,0.9533691,5

