Timestamp,Found Object_x,Found Object_y,Found Object_z,Object To Find
2098813653681,4.521744,1.543518,1.086975,2

2102333656459,0.9590759,1.053528,4.688293,2

2104109625394,1.866333,3.99353,2.139832,2

2106857650013,2.780975,2.033508,-3.484375,2

2110185641954,-4.314529,0.07348633,-2.321533,2

2113169730130,-3.862869,3.013489,0.08428955,2

2115345665264,-3.905731,0.5634766,2.904785,2

2118137639087,-1.383926,3.503479,3.133728,2

2129441678084,-1.862854,2.523499,-3.764526,2

2141125694267,1.900177,4.483521,-0.5454712,2

