Timestamp,Found Object_x,Found Object_y,Found Object_z,Object To Find
8509918462833,4.748611,0.1224976,-1.202393,3

8510926486074,4.748611,0.1224976,-1.202393,3

8511930501776,4.748611,0.1224976,-1.202393,3

8515290507987,2.763428,3.0625,-2.644714,3

8517646466824,0.9167023,0.6124878,-4.774353,3

8519970513736,-1.080063,3.55249,-3.197388,3

8523006501971,3.888702,2.57251,1.506714,3

8525766505806,-0.9725037,4.532471,1.587646,3

8528826490887,-4.05394,1.592529,2.244873,3

8533398509510,-3.865158,1.102478,-2.802673,3

8536190572480,-2.751831,4.04248,-0.3092651,3

8551658510412,0.3015289,2.08252,4.425171,3

