Timestamp,Found Object_x,Found Object_y,Found Object_z,Object To Find
3372246148701,3.349956,0.4207071,-3.551169,93

3380510180488,-0.8412105,4.627778,1.373331,28

3402290245163,-4.683888,1.410606,-0.2852785,90

3413238232855,0.7129348,4.479293,1.854093,51

3416554182533,-1.16501,2.54899,4.019379,88

3427214185201,-1.973048,4.380303,0.9643787,50

3435486237344,3.599501,2.499495,-2.192287,91

3446770157418,-1.674651,4.528788,-0.83404,1

3449830183848,1.613239,0.07424242,4.626224,42

3456150216287,2.760634,2.103535,-3.458907,2

3482882193194,-4.313641,0.1237374,-2.321033,52

3487942276713,-1.842458,2.598485,-3.723335,77

3520922222503,0.4577049,3.835859,3.014415,22

3532574322068,0.9563377,1.113636,4.674958,15

3536550252894,-4.654778,0.7671717,-1.324572,65

